v 20110115 2
C 44300 41900 1 0 0 ATmega644.sym
{
T 47100 46600 5 10 1 1 0 6 1
refdes=U0
T 44700 54350 5 10 0 0 0 0 1
device=ATmega1284P
T 44700 54550 5 10 0 0 0 0 1
footprint=TQFP44_10
}
C 45600 36200 1 0 0 ds3231.sym
{
T 47300 38300 5 10 1 1 0 6 1
refdes=IC9
T 45900 38500 5 10 0 0 0 0 1
device=DS3231
T 45900 38700 5 10 0 0 0 0 1
footprint=SO16
}
C 61200 45700 1 0 0 m25pso8.sym
{
T 61900 45500 5 10 1 1 0 0 1
device=M25P16
T 62300 46800 5 10 1 1 0 0 1
refdes=IC1
}
C 58200 44400 1 0 1 securedigital.sym
{
T 58200 49200 5 10 0 0 0 6 1
device=connector
T 58200 49000 5 10 0 0 0 6 1
footprint=memcard
T 58200 48700 5 10 0 1 0 6 1
net=VCC:4
T 58200 48500 5 10 0 1 0 6 1
net=GND:3,6
T 58200 48200 5 10 1 1 0 6 1
refdes=SDCARD1
T 58200 44400 5 10 0 0 0 0 1
oldrefdes=IC4
T 57200 44200 5 10 1 1 0 0 1
description=SD card slot
}
C 42400 46800 1 0 0 3.3V-plus-1.sym
C 42800 43100 1 0 0 gnd-1.sym
C 40400 52500 1 0 0 connector5-1.sym
{
T 42200 54000 5 10 0 0 0 0 1
device=CONNECTOR_5
T 40500 54200 5 10 1 1 0 0 1
refdes=JP1
T 39800 52300 5 10 1 1 0 0 1
description=Programming header
}
C 52400 50400 1 0 1 connector6-1.sym
{
T 50600 52200 5 10 0 0 0 6 1
device=CONNECTOR_6
T 52100 50300 5 10 1 1 180 6 1
refdes=JP2
T 51800 49900 5 10 1 1 0 0 1
description=PORTA
}
C 40600 43500 1 0 0 connector6-1.sym
{
T 42400 45300 5 10 0 0 0 0 1
device=CONNECTOR_6
T 40700 45500 5 10 1 1 0 0 1
refdes=JP8
T 40500 43300 5 10 1 1 0 0 1
description=PORTD
}
C 51000 46700 1 180 0 capacitor-1.sym
{
T 50800 46000 5 10 0 0 180 0 1
device=CAPACITOR
T 50700 46600 5 10 1 1 0 0 1
refdes=C2
T 50800 45800 5 10 0 0 180 0 1
symversion=0.1
T 51100 46400 5 10 1 1 180 0 1
value=47nF
}
N 44400 46900 44100 46900 4
N 44100 46900 44100 53900 4
N 44100 53900 42100 53900 4
N 42100 53600 44700 53600 4
N 43800 53600 43800 48100 4
N 43800 48100 44400 48100 4
N 44400 47700 43500 47700 4
N 43500 47700 43500 53300 4
N 42100 53300 44700 53300 4
N 42100 53000 61200 53000 4
N 43200 53000 43200 47300 4
N 43200 47300 44400 47300 4
N 42100 52700 42900 52700 4
N 42900 52700 42900 43400 4
N 44400 46100 42900 46100 4
N 44400 46500 42600 46500 4
N 42600 45200 42600 46800 4
N 56100 45400 56100 53600 4
N 56100 45400 56400 45400 4
N 55800 47400 55800 53300 4
N 55800 47400 56400 47400 4
N 55500 46600 55500 53000 4
N 55500 46600 56400 46600 4
N 45100 50600 45100 52400 4
N 45100 52400 55200 52400 4
N 45500 52700 60000 52700 4
N 55200 45000 55200 52400 4
N 55200 45000 56400 45000 4
N 60000 52700 60000 46500 4
N 60000 46500 61200 46500 4
N 60300 47000 60300 53000 4
N 60300 47000 63200 47000 4
N 62900 46100 63200 46100 4
N 63200 46100 63200 47000 4
N 60600 46300 60600 53300 4
N 60600 46300 61200 46300 4
N 60900 47300 60900 53600 4
N 60900 47300 63500 47300 4
N 63500 47300 63500 45900 4
N 63500 45900 62900 45900 4
C 59500 47900 1 0 0 3.3V-plus-1.sym
N 59700 47900 59700 46100 4
N 59700 46100 61200 46100 4
N 59700 47600 63800 47600 4
N 63800 46300 63800 47600 4
N 63800 46300 62900 46300 4
N 62900 46500 63800 46500 4
C 59600 45300 1 0 0 gnd-1.sym
N 59700 45600 59700 45900 4
N 59400 45900 61200 45900 4
N 46000 53300 61200 53300 4
N 46000 53600 60900 53600 4
C 54700 47900 1 0 0 3.3V-plus-1.sym
C 54400 47000 1 270 0 capacitor-1.sym
{
T 55100 46800 5 10 0 0 270 0 1
device=CAPACITOR
T 54200 46800 5 10 1 1 180 6 1
refdes=C11
T 55300 46800 5 10 0 0 270 0 1
symversion=0.1
T 54600 46300 5 10 1 1 0 6 1
value=47nF
}
N 54900 46200 56400 46200 4
N 54900 47900 54900 46200 4
C 54800 45200 1 0 0 gnd-1.sym
N 54900 45500 54900 45800 4
N 54600 45800 56400 45800 4
N 45500 50600 45500 52700 4
N 42300 44900 44400 44900 4
N 44400 44500 42300 44500 4
N 42300 44500 42300 44600 4
N 42300 44300 44400 44300 4
N 44400 44300 44400 44100 4
N 42300 44000 44100 44000 4
N 44100 44000 44100 41700 4
N 44100 41700 45100 41700 4
N 45100 41700 45100 42000 4
N 42300 43700 42900 43700 4
N 42300 45200 42600 45200 4
C 47300 40900 1 0 0 3.3V-plus-1.sym
C 47400 41400 1 0 0 gnd-1.sym
N 47500 41700 47500 42000 4
N 47100 40600 47100 42000 4
N 47500 40600 47500 40900 4
C 48000 36700 1 270 0 battery-1.sym
{
T 48900 36400 5 10 0 0 270 0 1
device=BATTERY
T 48400 36500 5 10 1 1 0 0 1
refdes=B1
T 49300 36400 5 10 0 0 270 0 1
symversion=0.1
T 48400 36100 5 10 1 1 0 0 1
value=3.3V
T 48500 36300 5 10 1 1 0 0 1
label=Clock battery
}
C 47800 35100 1 0 0 gnd-1.sym
N 48200 35700 48200 36000 4
N 48200 36700 48200 37000 4
N 48200 37000 47600 37000 4
N 47600 36600 47900 36600 4
N 47900 36600 47900 35400 4
N 47900 35700 48200 35700 4
C 45100 39600 1 0 0 3.3V-plus-1.sym
N 45300 39600 45300 36600 4
N 45300 36600 45600 36600 4
N 47900 42000 47900 37800 4
N 47900 37800 47600 37800 4
N 47600 37400 48300 37400 4
N 48300 37400 48300 42000 4
C 46100 39200 1 0 0 resistor-2.sym
{
T 46500 39550 5 10 0 0 0 0 1
device=RESISTOR
T 46300 39500 5 10 1 1 0 0 1
refdes=R1
T 46600 39500 5 10 1 1 0 0 1
value=10kΩ
}
C 46100 38900 1 0 0 resistor-2.sym
{
T 46500 39250 5 10 0 0 0 0 1
device=RESISTOR
T 46300 38700 5 10 1 1 0 0 1
refdes=R2
T 46600 38700 5 10 1 1 0 0 1
value=10kΩ
}
N 47000 39000 48300 39000 4
N 47000 39300 47900 39300 4
N 46100 39300 45300 39300 4
N 46100 39000 45300 39000 4
B 44300 34900 5300 5200 3 0 0 2 100 100 0 -1 -1 -1 -1 -1
T 44300 34700 9 10 1 0 0 0 1
RTC
B 54100 44100 4400 4300 3 0 0 2 100 100 0 -1 -1 -1 -1 -1
T 54100 43900 9 10 1 0 0 0 1
SPI SD card
B 58800 45100 5300 3300 3 0 0 2 100 100 0 -1 -1 -1 -1 -1
T 58800 44900 9 10 1 0 0 0 1
SPI flash memory
C 51500 46200 1 0 0 gnd-1.sym
N 49800 46100 51300 46100 4
N 51000 46500 51600 46500 4
N 49800 46500 50100 46500 4
N 47900 50600 47900 51800 4
N 47900 51800 50700 51800 4
N 48300 51500 50700 51500 4
N 48300 51500 48300 50600 4
N 48700 50600 48700 51200 4
N 48700 51200 50700 51200 4
N 50700 50900 49100 50900 4
N 49100 50900 49100 50600 4
C 50300 50000 1 0 0 gnd-1.sym
N 50700 50600 50400 50600 4
N 50400 50600 50400 50300 4
C 51900 48000 1 90 0 capacitor-1.sym
{
T 51200 48200 5 10 0 0 90 0 1
device=CAPACITOR
T 52000 48700 5 10 1 1 180 0 1
refdes=C6
T 51000 48200 5 10 0 0 90 0 1
symversion=0.1
T 52200 48300 5 10 1 1 180 0 1
value=47nF
}
C 51400 48000 1 90 0 capacitor-1.sym
{
T 50700 48200 5 10 0 0 90 0 1
device=CAPACITOR
T 51500 48700 5 10 1 1 180 0 1
refdes=C1
T 50500 48200 5 10 0 0 90 0 1
symversion=0.1
T 51700 48300 5 10 1 1 180 0 1
value=47nF
}
C 52900 48000 1 90 0 capacitor-1.sym
{
T 52200 48200 5 10 0 0 90 0 1
device=CAPACITOR
T 53000 48700 5 10 1 1 180 0 1
refdes=C8
T 52000 48200 5 10 0 0 90 0 1
symversion=0.1
T 53200 48300 5 10 1 1 180 0 1
value=47nF
}
C 52400 48000 1 90 0 capacitor-1.sym
{
T 51700 48200 5 10 0 0 90 0 1
device=CAPACITOR
T 52500 48700 5 10 1 1 180 0 1
refdes=C7
T 51500 48200 5 10 0 0 90 0 1
symversion=0.1
T 52700 48300 5 10 1 1 180 0 1
value=47nF
}
C 46600 51900 1 0 0 3.3V-plus-1.sym
C 46700 50900 1 0 0 gnd-1.sym
N 47500 50600 47500 52100 4
N 47100 50600 47100 51500 4
N 47100 51500 46800 51500 4
N 46800 51200 46800 51500 4
C 42800 39100 1 90 0 connector4-1.sym
{
T 41900 40900 5 10 0 0 90 0 1
device=CONNECTOR_4
T 42900 39600 5 10 1 1 180 6 1
refdes=JP16
T 43300 39400 5 10 1 1 180 0 1
description=LCD
}
N 42000 41400 46700 41400 4
N 46700 41400 46700 42000 4
N 46300 42000 46300 41100 4
N 46300 41100 42300 41100 4
N 47100 40600 47500 40600 4
C 51000 49500 1 0 0 3.3V-plus-1.sym
C 51100 47100 1 0 0 gnd-1.sym
N 51200 47400 51200 48000 4
N 51200 47700 52700 47700 4
N 52700 47700 52700 48000 4
N 52200 48000 52200 47700 4
N 51700 48000 51700 47700 4
N 51200 49500 51200 48900 4
N 51200 49200 52700 49200 4
N 52700 49200 52700 48900 4
N 52200 48900 52200 49200 4
N 51700 49200 51700 48900 4
T 51300 47400 9 10 1 0 0 0 1
ATmega decoupling
C 45000 38100 1 90 0 capacitor-1.sym
{
T 44300 38300 5 10 0 0 90 0 1
device=CAPACITOR
T 45100 38800 5 10 1 1 180 0 1
refdes=C5
T 44100 38300 5 10 0 0 90 0 1
symversion=0.1
T 45300 38400 5 10 1 1 180 0 1
value=47nF
}
N 44800 39000 44800 39300 4
N 44800 39300 45300 39300 4
N 44800 38100 44800 35700 4
N 44800 35700 47900 35700 4
C 59600 46100 1 90 0 capacitor-1.sym
{
T 58900 46300 5 10 0 0 90 0 1
device=CAPACITOR
T 59000 46800 5 10 1 1 180 6 1
refdes=C13
T 58700 46300 5 10 0 0 90 0 1
symversion=0.1
T 59400 46500 5 10 1 1 180 0 1
value=47nF
}
N 54600 46100 54600 45800 4
N 54600 47000 54600 47300 4
N 54600 47300 54900 47300 4
N 59400 47000 59400 47300 4
N 59400 47300 59700 47300 4
N 59400 46100 59400 45900 4
C 52400 43900 1 0 1 connector6-1.sym
{
T 50600 45700 5 10 0 0 0 6 1
device=CONNECTOR_6
T 52000 46000 5 10 1 1 180 6 1
refdes=JP7
T 51800 43700 5 10 1 1 0 0 1
description=PORTC
}
N 51300 46100 51300 46500 4
N 50700 45300 49800 45300 4
N 49800 44900 50700 44900 4
N 50700 44900 50700 45000 4
N 50700 44700 49800 44700 4
N 49800 44700 49800 44500 4
N 50700 44400 50100 44400 4
N 50100 44400 50100 44100 4
N 50100 44100 49800 44100 4
C 50200 45600 1 0 0 3.3V-plus-1.sym
C 50300 43500 1 0 0 gnd-1.sym
N 50400 45600 50700 45600 4
N 50400 43800 50400 44100 4
N 50400 44100 50700 44100 4
N 47500 52100 50700 52100 4
C 36100 40700 1 0 0 in-1.sym
{
T 36100 41000 5 10 0 0 0 0 1
device=INPUT
T 35700 40700 5 10 1 1 0 0 1
refdes=PC6
}
N 50800 37000 51100 37000 4
C 50200 36900 1 0 0 in-1.sym
{
T 50200 37200 5 10 0 0 0 0 1
device=INPUT
T 50300 37100 5 10 1 1 0 0 1
refdes=PC7
}
C 57000 37200 1 180 1 capacitor-1.sym
{
T 57200 36500 5 10 0 0 180 6 1
device=CAPACITOR
T 57300 37100 5 10 1 1 0 6 1
refdes=C10
T 57200 36300 5 10 0 0 180 6 1
symversion=0.1
T 57300 36900 5 10 1 1 180 0 1
value=47nF
}
C 59000 37800 1 0 0 out-1.sym
{
T 59000 38100 5 10 0 0 0 0 1
device=OUTPUT
T 59100 38000 5 10 1 1 0 0 1
refdes=PA2
}
C 56300 38400 1 90 0 ntc-1.sym
{
T 56300 39200 5 10 1 1 180 6 1
device=PPTC
T 56300 38800 5 10 1 1 180 6 1
refdes=LR1
T 56300 39000 5 10 1 1 180 6 1
value=1mA, 5V
}
N 59000 37900 58400 37900 4
N 58700 37000 57900 37000 4
N 56400 37700 56100 37700 4
N 56100 36700 56100 37700 4
N 57000 37000 56100 37000 4
N 56400 38100 56100 38100 4
N 56100 38100 56100 38400 4
N 56100 39600 56100 39300 4
T 59800 40000 9 10 1 0 0 8 5
PPTC limits
current between
voltage rails in
case of sensor
failure.
B 55800 36200 4100 3900 3 0 0 2 100 100 0 -1 -1 -1 -1 -1
T 55800 36000 9 10 1 0 0 0 1
Temperature sensor 0
C 61400 37200 1 180 1 capacitor-1.sym
{
T 61600 36500 5 10 0 0 180 6 1
device=CAPACITOR
T 61700 37100 5 10 1 1 0 6 1
refdes=C11
T 61600 36300 5 10 0 0 180 6 1
symversion=0.1
T 61700 36900 5 10 1 1 180 0 1
value=47nF
}
C 63400 37800 1 0 0 out-1.sym
{
T 63400 38100 5 10 0 0 0 0 1
device=OUTPUT
T 63500 38000 5 10 1 1 0 0 1
refdes=PA3
}
C 60700 38400 1 90 0 ntc-1.sym
{
T 60700 39200 5 10 1 1 180 6 1
device=PPTC
T 60700 38800 5 10 1 1 180 6 1
refdes=LR2
T 60700 39000 5 10 1 1 180 6 1
value=1mA, 5V
}
N 60800 38100 60500 38100 4
N 60500 38100 60500 38400 4
N 60500 39600 60500 39300 4
B 60200 36200 4100 3900 3 0 0 2 100 100 0 -1 -1 -1 -1 -1
T 64200 40000 9 10 1 0 0 8 5
PPTC limits
current between
voltage rails in
case of sensor
failure.
T 60200 36000 9 10 1 0 0 0 1
Temperature sensor 1
C 55600 41800 1 180 0 capacitor-1.sym
{
T 55400 41100 5 10 0 0 180 0 1
device=CAPACITOR
T 55300 41700 5 10 1 1 0 0 1
refdes=C12
T 55400 40900 5 10 0 0 180 0 1
symversion=0.1
T 55300 41500 5 10 1 1 180 6 1
value=10μF
}
C 58500 41300 1 0 0 out-1.sym
{
T 58500 41600 5 10 0 0 0 0 1
device=OUTPUT
T 58600 41500 5 10 1 1 0 0 1
refdes=PA1
}
C 56100 41900 1 90 0 ntc-1.sym
{
T 55600 42600 5 10 1 1 180 0 1
device=PPTC
T 55600 42400 5 10 1 1 180 0 1
refdes=LR3
T 55600 42200 5 10 1 1 180 0 1
value=50mA, 5V
}
N 55600 41600 56200 41600 4
N 55900 41600 55900 41900 4
N 55900 43100 55900 42800 4
N 55900 40900 55900 41200 4
N 54400 41200 56200 41200 4
N 54400 41200 54400 41600 4
N 54400 41600 54700 41600 4
T 59300 43500 9 10 1 0 0 8 5
PPTC limits
current between
voltage rails in
case of sensor
failure.
B 54100 40400 5300 3200 3 0 0 2 100 100 0 -1 -1 -1 -1 -1
T 54100 40200 9 10 1 0 0 0 1
Krausen level sensor
C 61200 41800 1 180 0 capacitor-1.sym
{
T 61000 41100 5 10 0 0 180 0 1
device=CAPACITOR
T 60900 41700 5 10 1 1 0 0 1
refdes=C13
T 61000 40900 5 10 0 0 180 0 1
symversion=0.1
T 60900 41500 5 10 1 1 180 6 1
value=100nF
}
C 64000 41900 1 270 1 resistor-2.sym
{
T 64350 42300 5 10 0 0 90 2 1
device=RESISTOR
T 64600 42600 5 10 1 1 180 0 1
refdes=R12
T 64600 42400 5 10 1 1 180 0 1
value=1kΩ
}
C 64400 41300 1 0 0 out-1.sym
{
T 64400 41600 5 10 0 0 0 0 1
device=OUTPUT
T 64500 41500 5 10 1 1 0 0 1
refdes=PD3
}
C 61700 41900 1 90 0 ntc-1.sym
{
T 61200 42600 5 10 1 1 180 0 1
device=PPTC
T 61200 42400 5 10 1 1 180 0 1
refdes=LR4
T 61200 42200 5 10 1 1 180 0 1
value=5mA, 5V
}
N 61500 41900 61500 41600 4
N 61200 41600 61800 41600 4
N 61500 40900 61500 41200 4
N 60000 41200 61800 41200 4
N 61500 42800 61500 43400 4
N 64100 41400 64100 41900 4
T 65200 43800 9 10 1 0 0 8 3
PPTC limits current
between voltage rails in
case of sensor failure.
B 59700 40400 5600 3500 3 0 0 2 100 100 0 -1 -1 -1 -1 -1
T 59700 40200 9 10 1 0 0 0 1
Humidity sensor
C 68000 42700 1 0 0 5V-plus-1.sym
C 68400 41500 1 90 0 ntc-1.sym
{
T 67900 42200 5 10 1 1 180 0 1
device=PPTC
T 67900 42000 5 10 1 1 180 0 1
refdes=LR5
T 67900 41800 5 10 1 1 180 0 1
value=200mA, 5V
}
C 69700 38600 1 0 0 out-1.sym
{
T 69700 38900 5 10 0 0 0 0 1
device=OUTPUT
T 69800 38800 5 10 1 1 0 0 1
refdes=PA0
}
N 68200 42400 68200 42700 4
N 68200 41200 68200 41500 4
N 66700 40400 67300 40400 4
N 67300 40200 66700 40200 4
C 69300 39000 1 270 1 resistor-2.sym
{
T 69650 39400 5 10 0 0 270 6 1
device=RESISTOR
T 69600 39600 5 10 1 1 0 0 1
refdes=R14
T 70000 39400 5 10 1 1 0 6 1
value=75kΩ
}
C 69300 37500 1 270 1 resistor-2.sym
{
T 69650 37900 5 10 0 0 90 2 1
device=RESISTOR
T 69600 38200 5 10 1 1 180 6 1
refdes=R15
T 69600 38000 5 10 1 1 180 6 1
value=150kΩ
}
N 69700 38700 69400 38700 4
N 69400 38400 69400 39000 4
N 69400 37500 69400 37200 4
C 68100 36400 1 0 0 gnd-1.sym
N 68200 38300 68200 36700 4
C 67700 38300 1 0 0 nmos-3.sym
{
T 68300 38800 5 10 0 0 0 0 1
device=NMOS_TRANSISTOR
T 67800 38900 5 10 1 1 0 6 1
refdes=Q3
T 67800 38700 5 10 1 1 0 6 1
device=BS170
}
C 67500 37300 1 90 0 resistor-2.sym
{
T 67150 37700 5 10 0 0 90 0 1
device=RESISTOR
T 67200 37900 5 10 1 1 180 0 1
refdes=R16
T 67200 37700 5 10 1 1 180 0 1
value=1MΩ
}
N 67400 37000 68200 37000 4
N 67400 37000 67400 37300 4
N 67400 38200 67400 38500 4
N 67100 38500 67700 38500 4
C 66500 38400 1 0 0 in-1.sym
{
T 66500 38700 5 10 0 0 0 0 1
device=INPUT
T 66100 38400 5 10 1 1 0 0 1
refdes=PC4
}
N 68200 39100 68200 39400 4
B 65600 36200 5800 7000 3 0 0 2 100 100 0 -1 -1 -1 -1 -1
T 65600 36000 9 10 1 0 0 0 1
Alcohol gas concentration sensor
T 70100 43100 9 10 1 0 0 8 5
PPTC limits
current between
voltage rails in
case of sensor
failure.
T 71300 36600 9 10 1 0 0 6 5
R14, R15 reduce
analogue signal
from 5V to 3.3V
and provide 225kΩ
load on sensor
T 67900 36500 9 10 1 0 0 6 2
Sensor heater
draws 170mA
C 68700 47100 1 270 1 dpst-noblock.sym
C 69300 48200 1 90 0 coil-2.sym
{
T 68800 48400 5 10 0 0 90 0 1
device=COIL
T 69500 49200 5 10 1 1 180 0 1
refdes=L1
T 68600 48400 5 10 0 0 90 0 1
symversion=0.1
T 69300 48200 5 10 1 1 0 0 1
value=50W heater
}
C 67600 47000 1 90 0 coil-1.sym
{
T 67200 47200 5 10 0 0 90 0 1
device=COIL
T 68000 47800 5 10 1 1 180 0 1
refdes=RL1
T 67000 47200 5 10 0 0 90 0 1
symversion=0.1
}
C 67200 47000 1 90 0 diode-1.sym
{
T 66600 47400 5 10 0 0 90 0 1
device=DIODE
T 66700 47800 5 10 1 1 180 6 1
refdes=D1
}
C 69400 45900 1 90 0 voltage-1.sym
{
T 68900 46000 5 10 0 0 90 0 1
device=VOLTAGE_SOURCE
T 69600 46800 5 10 1 1 180 0 1
refdes=V1
T 69400 45900 5 10 1 1 0 0 1
value=230V
}
L 67600 47500 68900 47500 3 0 0 2 100 100
N 68800 45900 68800 45600 4
N 68800 45600 69200 45600 4
N 69200 46800 69200 47100 4
N 69200 47900 69200 48200 4
N 69200 49500 68800 49500 4
N 68800 49500 68800 47900 4
N 69200 45600 69200 45900 4
N 69200 49200 69200 49500 4
C 67800 48600 1 90 0 ntc-1.sym
{
T 67300 49300 5 10 1 1 180 0 1
device=PPTC
T 67300 49100 5 10 1 1 180 0 1
refdes=LR5
T 67300 48900 5 10 1 1 180 0 1
value=500mA, 5V
}
N 67600 48000 67600 48600 4
N 67000 47900 67000 48300 4
N 67000 48300 67600 48300 4
N 67000 46700 67600 46700 4
C 68900 45900 1 90 0 fuse-2.sym
{
T 68350 46100 5 10 0 0 90 0 1
device=FUSE
T 68400 46600 5 10 1 1 180 6 1
refdes=F1
T 68150 46100 5 10 0 0 90 0 1
symversion=0.1
T 68600 46100 5 10 1 1 0 6 1
value=0.5A
}
C 67400 49800 1 0 0 5V-plus-1.sym
N 67600 49500 67600 49800 4
C 67500 43700 1 0 0 gnd-1.sym
N 67600 45600 67600 44000 4
C 67100 45600 1 0 0 nmos-3.sym
{
T 67700 46100 5 10 0 0 0 0 1
device=NMOS_TRANSISTOR
T 67200 46200 5 10 1 1 0 6 1
refdes=Q4
T 67200 46000 5 10 1 1 0 6 1
device=BS170
}
C 66900 44600 1 90 0 resistor-2.sym
{
T 66550 45000 5 10 0 0 90 0 1
device=RESISTOR
T 66600 45200 5 10 1 1 180 0 1
refdes=R17
T 66600 45000 5 10 1 1 180 0 1
value=1MΩ
}
N 66800 44300 67600 44300 4
N 66800 44300 66800 44600 4
N 66800 45500 66800 45800 4
N 66500 45800 67100 45800 4
C 65900 45700 1 0 0 in-1.sym
{
T 65900 46000 5 10 0 0 0 0 1
device=INPUT
T 66000 45900 5 10 1 1 0 0 1
refdes=PC5
}
T 68700 44500 9 10 1 0 0 6 3
Relay coil
current draw
unknown
N 67600 46400 67600 47000 4
N 67000 46700 67000 47000 4
N 68800 46800 68800 47100 4
B 65600 43500 4800 6800 3 0 0 2 100 100 0 -1 -1 -1 -1 -1
T 65600 43300 9 10 1 0 0 0 1
Fermentation vessel heater
B 49900 35700 5600 4400 3 0 0 2 100 100 0 -1 -1 -1 -1 -1
T 49900 35500 9 10 1 0 0 0 1
Sensor power control
T 37500 41200 9 10 1 0 0 0 2
LCD power
control
C 68400 51900 1 90 0 capacitor-1.sym
{
T 67700 52100 5 10 0 0 90 0 1
device=CAPACITOR
T 68100 52600 5 10 1 1 180 0 1
refdes=C9
T 67500 52100 5 10 0 0 90 0 1
symversion=0.1
T 68100 52200 5 10 1 1 180 0 1
value=1μF
}
C 71000 51900 1 90 0 capacitor-1.sym
{
T 70300 52100 5 10 0 0 90 0 1
device=CAPACITOR
T 70700 52600 5 10 1 1 180 0 1
refdes=C19
T 70100 52100 5 10 0 0 90 0 1
symversion=0.1
T 70700 52200 5 10 1 1 180 0 1
value=10nF
}
C 71700 51900 1 90 0 capacitor-1.sym
{
T 71000 52100 5 10 0 0 90 0 1
device=CAPACITOR
T 71400 52600 5 10 1 1 180 0 1
refdes=C14
T 70800 52100 5 10 0 0 90 0 1
symversion=0.1
T 71400 52200 5 10 1 1 180 0 1
value=2.2μF
}
C 71300 54800 1 0 0 generic-power.sym
{
T 71500 55050 5 10 1 1 0 3 1
net=+3.3V
}
C 67200 51000 1 0 0 gnd-1.sym
C 67100 56500 1 270 0 connector2-1.sym
{
T 68100 56300 5 10 0 0 270 0 1
device=CONNECTOR_2
T 67900 56300 5 10 1 1 0 0 1
refdes=JP20
T 67900 56100 5 10 1 1 0 0 1
description=Power connector
}
N 66400 54500 68500 54500 4
N 68500 53700 68200 53700 4
N 68200 52800 68200 54500 4
N 67300 51600 67300 54100 4
N 66400 54100 68500 54100 4
N 68200 51900 68200 51600 4
N 63400 51600 71500 51600 4
N 70800 51900 70800 51600 4
N 70800 52800 70800 53700 4
N 70500 53700 70800 53700 4
N 71500 54800 71500 52800 4
N 71500 54500 70500 54500 4
N 71500 51900 71500 51600 4
N 67600 54500 67600 54800 4
N 67300 54100 67300 54800 4
C 63200 51900 1 270 1 capacitor-1.sym
{
T 63900 52100 5 10 0 0 90 2 1
device=CAPACITOR
T 63500 52600 5 10 1 1 180 6 1
refdes=C16
T 64100 52100 5 10 0 0 90 2 1
symversion=0.1
T 63500 52200 5 10 1 1 180 6 1
value=2.2μF
}
C 63900 51900 1 270 1 capacitor-1.sym
{
T 64600 52100 5 10 0 0 90 2 1
device=CAPACITOR
T 64200 52600 5 10 1 1 180 6 1
refdes=C20
T 64800 52100 5 10 0 0 90 2 1
symversion=0.1
T 64200 52200 5 10 1 1 180 6 1
value=10nF
}
C 66500 51900 1 270 1 capacitor-1.sym
{
T 67200 52100 5 10 0 0 90 2 1
device=CAPACITOR
T 66800 52600 5 10 1 1 180 6 1
refdes=C15
T 67400 52100 5 10 0 0 90 2 1
symversion=0.1
T 66800 52200 5 10 1 1 180 6 1
value=1μF
}
C 63200 54800 1 0 0 generic-power.sym
{
T 63400 55050 5 10 1 1 0 3 1
net=+5V
}
N 63400 54800 63400 52800 4
N 64400 54500 63400 54500 4
N 64400 53700 64100 53700 4
N 64100 53700 64100 52800 4
N 66400 53700 66700 53700 4
N 66700 52800 66700 54500 4
N 63400 51900 63400 51600 4
N 64100 51900 64100 51600 4
N 66700 51900 66700 51600 4
B 63100 50800 8700 5800 3 0 0 2 100 100 0 -1 -1 -1 -1 -1
T 63100 50600 9 10 1 0 0 0 1
Power regulators
C 42100 36500 1 90 0 switch-pushbutton-no-1.sym
{
T 41900 37300 5 10 1 1 180 0 1
refdes=SW1
T 41500 36900 5 10 0 0 90 0 1
device=SWITCH_PUSHBUTTON_NO
T 41100 36700 5 10 1 1 0 0 1
description=UI button
}
C 42400 37700 1 0 0 out-1.sym
{
T 42400 38000 5 10 0 0 0 0 1
device=OUTPUT
T 42500 37900 5 10 1 1 0 0 1
refdes=PD2
}
N 42100 37500 42100 37800 4
N 42100 37800 42400 37800 4
C 42000 35900 1 0 0 gnd-1.sym
N 42100 36200 42100 36500 4
C 61200 53200 1 0 0 resistor-2.sym
{
T 61600 53550 5 10 0 0 0 0 1
device=RESISTOR
T 61300 53400 5 10 1 1 0 0 1
refdes=R20
T 61700 53400 5 10 1 1 0 0 1
value=82kΩ
}
C 61200 52900 1 0 0 resistor-2.sym
{
T 61600 53250 5 10 0 0 0 0 1
device=RESISTOR
T 61300 52700 5 10 1 1 0 0 1
refdes=R21
T 61700 52700 5 10 1 1 0 0 1
value=82kΩ
}
C 62200 53600 1 0 0 3.3V-plus-1.sym
N 62400 53600 62400 53000 4
N 62400 53000 62100 53000 4
N 62100 53300 62400 53300 4
N 64100 42800 64100 43100 4
N 64100 43100 61500 43100 4
C 53100 37600 1 0 0 pmos-3.sym
{
T 53700 37900 5 10 1 1 0 0 1
device=ZVP2110A
T 53700 38100 5 10 1 1 0 0 1
refdes=Q2
}
C 52300 36500 1 0 0 npn-2.sym
{
T 52900 36800 5 10 1 1 0 0 1
device=2N2222
T 52900 37000 5 10 1 1 0 0 1
refdes=Q5
}
C 52900 38100 1 90 0 resistor-2.sym
{
T 52550 38500 5 10 0 0 90 0 1
device=RESISTOR
T 52600 38700 5 10 1 1 180 0 1
refdes=R11
T 52600 38500 5 10 1 1 180 0 1
value=10kΩ
}
C 51100 36900 1 0 0 resistor-2.sym
{
T 51500 37250 5 10 0 0 0 0 1
device=RESISTOR
T 51100 36700 5 10 1 1 0 0 1
refdes=R18
T 51500 36700 5 10 1 1 0 0 1
value=10kΩ
}
N 52000 37000 52300 37000 4
N 52800 37500 52800 38100 4
N 52800 37800 53100 37800 4
C 53400 39600 1 0 0 5V-plus-1.sym
C 52700 35900 1 0 0 gnd-1.sym
N 53600 39600 53600 38400 4
N 52800 39000 52800 39300 4
N 52800 39300 53600 39300 4
C 53900 37500 1 270 0 generic-power.sym
{
T 54700 37250 5 10 1 1 0 3 1
net=VCCsensors
}
N 53600 37600 53600 37300 4
N 53600 37300 53900 37300 4
N 52800 36500 52800 36200 4
C 55900 39600 1 0 0 generic-power.sym
{
T 56400 39850 5 10 1 1 0 3 1
net=VCCsensors
}
C 56200 36400 1 0 1 gnd-1.sym
C 60300 39600 1 0 0 generic-power.sym
{
T 60800 39850 5 10 1 1 0 3 1
net=VCCsensors
}
C 60600 36400 1 0 1 gnd-1.sym
C 66500 42700 1 0 0 generic-power.sym
{
T 66700 42950 5 10 1 1 0 3 1
net=VCCsensors
}
C 69500 36900 1 0 1 gnd-1.sym
C 66900 41500 1 90 0 ntc-1.sym
{
T 66400 42200 5 10 1 1 180 0 1
device=PPTC
T 66400 42000 5 10 1 1 180 0 1
refdes=LR5
T 66400 41800 5 10 1 1 180 0 1
value=1mA, 5V
}
N 66700 40200 66700 41500 4
N 66700 42400 66700 42700 4
C 61400 40600 1 0 0 gnd-1.sym
C 55800 40600 1 0 0 gnd-1.sym
C 55700 43100 1 0 0 generic-power.sym
{
T 55900 43350 5 10 1 1 0 3 1
net=VCCsensors
}
N 36700 40800 37000 40800 4
C 39000 41400 1 0 0 pmos-3.sym
{
T 39600 41700 5 10 1 1 0 0 1
device=ZVP2110A
T 39600 41900 5 10 1 1 0 0 1
refdes=Q1
}
C 38200 40300 1 0 0 npn-2.sym
{
T 38800 40600 5 10 1 1 0 0 1
device=2N2222
T 38800 40800 5 10 1 1 0 0 1
refdes=Q6
}
C 38800 41900 1 90 0 resistor-2.sym
{
T 38450 42300 5 10 0 0 90 0 1
device=RESISTOR
T 38500 42500 5 10 1 1 180 0 1
refdes=R20
T 38500 42300 5 10 1 1 180 0 1
value=10kΩ
}
C 37000 40700 1 0 0 resistor-2.sym
{
T 37400 41050 5 10 0 0 0 0 1
device=RESISTOR
T 37000 40500 5 10 1 1 0 0 1
refdes=R19
T 37400 40500 5 10 1 1 0 0 1
value=10kΩ
}
N 37900 40800 38200 40800 4
N 38700 41300 38700 41900 4
N 38700 41600 39000 41600 4
C 39300 43400 1 0 0 5V-plus-1.sym
C 38600 39700 1 0 0 gnd-1.sym
N 39500 43400 39500 42200 4
N 38700 42800 38700 43100 4
N 38700 43100 39500 43100 4
N 39500 41400 39500 41100 4
N 39500 41100 41700 41100 4
N 38700 40300 38700 40000 4
N 42300 41100 42300 40800 4
N 42000 40800 42000 41400 4
C 42900 40200 1 0 0 gnd-1.sym
N 42600 40800 43000 40800 4
N 43000 40800 43000 40500 4
N 41700 41100 41700 40800 4
C 56400 37300 1 0 0 mcp9700.sym
{
T 58100 38600 5 10 1 1 0 6 1
refdes=S1
T 56700 38800 5 10 0 0 0 0 1
device=MCP9700
T 56700 39000 5 10 0 0 0 0 1
footprint=TO92
}
C 60800 37300 1 0 0 mcp9700.sym
{
T 62500 38600 5 10 1 1 0 6 1
refdes=S2
T 61100 38800 5 10 0 0 0 0 1
device=MCP9700
T 61100 39000 5 10 0 0 0 0 1
footprint=TO92
}
N 58700 37000 58700 37900 4
N 62300 37000 63100 37000 4
N 63100 37000 63100 37900 4
N 61400 37000 60500 37000 4
N 60500 36700 60500 37700 4
N 60500 37700 60800 37700 4
N 63400 37900 62800 37900 4
C 67300 39400 1 0 0 mq-3.sym
{
T 68600 40800 5 10 1 1 0 0 1
refdes=S3
T 65800 40800 5 10 0 0 0 0 1
device=MQ-3
T 65800 41000 5 10 0 0 0 0 1
footprint=unknown
}
N 69100 40200 69400 40200 4
N 69400 39900 69400 40400 4
N 69400 40400 69100 40400 4
C 61800 40800 1 0 0 rht03.sym
{
T 63500 42100 5 10 1 1 0 6 1
refdes=S4
T 62100 42300 5 10 0 0 0 0 1
device=RHT03
T 62100 42500 5 10 0 0 0 0 1
footprint=unknown
}
N 64400 41400 63800 41400 4
C 56200 40600 1 0 0 gp2y0a21yk0f.sym
{
T 56500 40600 5 10 1 1 0 0 1
refdes=S5
T 56500 42300 5 10 0 0 0 0 1
device=GP2Y0A21YK0F
T 56500 42500 5 10 0 0 0 0 1
footprint=unknown
}
N 58500 41400 58200 41400 4
C 44700 52900 1 0 0 switch-dip2-1.sym
{
T 46100 53675 5 8 0 0 0 0 1
device=SWITCH_DIP2
T 45000 53850 5 10 1 1 0 0 1
refdes=SW2
T 45600 53850 5 10 1 1 0 0 1
label=Programming switch
}
C 61300 43400 1 0 0 generic-power.sym
{
T 61500 43650 5 10 1 1 0 3 1
net=VCCsensors
}
T 52000 53700 9 10 1 0 0 0 1
SPI bus
N 46800 51900 46800 51800 4
N 46800 51800 47500 51800 4
T 48400 41100 9 10 1 0 0 0 1
I2C bus
N 60000 41200 60000 41600 4
N 60000 41600 60300 41600 4
T 63700 40500 9 10 1 0 0 0 4
PD3 may also be
driven at 3.3V by
MCU to trigger
RHT03 reading
T 70500 46900 9 10 1 0 0 0 6
NOTE: The mains side of this circuit
has not been validated. It is a class 1
appliance which must adhere to standards
including IEC 61140.
A safer option if the power is ≤50W
would be to use a low voltage DC heater.
C 68500 53300 1 0 0 lp2985.sym
{
T 70200 55000 5 10 1 1 0 6 1
refdes=IC5
T 68800 55200 5 10 0 0 0 0 1
device=LP2985-33
T 68800 55400 5 10 0 0 0 0 1
footprint=SOT23
T 69300 53000 5 10 1 1 0 0 1
value=3.3V
}
C 66400 53300 1 0 1 lp2985.sym
{
T 64700 55000 5 10 1 1 0 0 1
refdes=IC6
T 66100 55200 5 10 0 0 0 6 1
device=LP2985-50
T 66100 55400 5 10 0 0 0 6 1
footprint=SOT23
T 65600 53000 5 10 1 1 0 6 1
value=5.0V
}
N 67300 51300 67300 51600 4
